…
### Combine Categorization Methods

Alphabetize categories and combine sum-normed categorizations with harsh
threshold categorizations.

``` r
normed_category_df
```

    ## # A tibble: 3,600 x 15
    ##    image_id Person `Animal/Plant` Object Place Other Person_is_max
    ##    <chr>     <dbl>          <dbl>  <dbl> <dbl> <dbl>         <int>
    ##  1 IAPS_10…      0              1      0     0     0             0
    ##  2 IAPS_13…      0              1      0     0     0             0
    ##  3 IAPS_13…      0              1      0     0     0             0
    ##  4 IAPS_16…      0              1      0     0     0             0
    ##  5 IAPS_16…      0              1      0     0     0             0
    ##  6 IAPS_17…      0              1      0     0     0             0
    ##  7 IAPS_19…      0              1      0     0     0             0
    ##  8 IAPS_20…      1              0      0     0     0             1
    ##  9 IAPS_20…      1              0      0     0     0             1
    ## 10 IAPS_20…      1              0      0     0     0             1
    ## # … with 3,590 more rows, and 8 more variables: `Animal/Plant_is_max` <int>,
    ## #   Object_is_max <int>, Place_is_max <int>, Other_is_max <int>,
    ## #   rel_max_rating <dbl>, htg_index <dbl>, category_max <chr>,
    ## #   category_ties <chr>
…
